{
  "$schema": "https://raw.githubusercontent.com/microsoft/vcpkg-tool/main/docs/vcpkg-configuration.schema.json",
  "default-registry": {
    "kind": "git",
    "repository": "https://github.com/microsoft/vcpkg",
    "baseline": "3dd44b931481d7a8e9ba412621fa810232b66289"
  },
  "registries": [
    {
      "kind": "git",
      "repository": "https://gitlab.com/kicad/packaging/kicad-vcpkg-registry.git",
      "baseline": "2c877ed563ef15d7e1c08b0c21817d2125eb37ca",
      "packages": [
        "glew",
        "python3",
        "opencascade",
        "wxpython",
        "wxwidgets",
        "ngspice",
        "liblzma"
      ]
    }
  ]
}
