(kicad_sch
	(version 20240417)
	(generator "eeschema")
	(generator_version "8.99")
	(uuid "e77939c4-758d-4d0c-a6e5-dc441c8c54c9")
	(paper "A4")
	(lib_symbols)
	(rule_area
		(polyline
			(pts
				(xy 144.78 63.5) (xy 177.8 63.5) (xy 180.34 66.04) (xy 180.34 110.49) (xy 171.45 110.49) (xy 157.48 96.52)
				(xy 148.59 105.41) (xy 148.59 107.95) (xy 133.35 92.71) (xy 133.35 85.09) (xy 139.7 78.74) (xy 139.7 68.58)
			)
			(stroke
				(width 0)
				(type dash)
			)
			(fill
				(type none)
			)
			(uuid 4f0aecc0-f3b3-4645-a47e-6a29fb5ff671)
		)
	)
	(rule_area
		(polyline
			(pts
				(xy 69.85 49.53) (xy 101.6 49.53) (xy 101.6 73.66) (xy 95.25 80.01) (xy 86.36 80.01) (xy 76.2 69.85)
				(xy 76.2 66.04) (xy 78.74 63.5) (xy 69.85 54.61)
			)
			(stroke
				(width 0)
				(type dash)
			)
			(fill
				(type none)
			)
			(uuid 839de646-0221-4c81-b248-242a273d8ed3)
		)
	)
	(sheet_instances
		(path "/"
			(page "1")
		)
	)
)
